{
    "$schema": "https://192.168.59.105/api/2/",
    "meta": {
        "$schema": "https://schema.berlin.de/queuemanagement/metaresult.json",
        "error": false,
        "generated": "2023-06-01T11:43:56+02:00",
        "server": "Zmsapi-ENV (version.unknown)"
    },
    "data": {
        "$schema": "https://schema.berlin.de/queuemanagement/maintenanceSchedule.json",
        "creatorId": 123,
        "creationDateTime": "2016-04-01T10:10:46+02:00",
        "startDateTime": "2016-04-01T15:15:00+02:00",
        "isActive": true,
        "isRepetitive": false,
        "timeString": "2016-04-01 15:15:00",
        "duration": 120,
        "leadTime": 90,
        "area": "zms*",
        "announcement": "<p class=\"message message--success\"><strong>Geplante Systemwartung</strong><br><br>Um {{ maintenance.startDateTime|date('H:i') }} Uhr ist eine Systemwartung geplant. Die Terminbuchung ist in dem Zeitraum nicht möglich.</p>",
        "documentBody": "<h1>{% trans %}Wartung{% endtrans %}</h1>{% trans %}Die Terminverwaltung wird momentan gewartet.{% endtrans %} {% trans %}Bitte probieren Sie es zu einem späteren Zeitpunkt erneut.{% endtrans %}<br>{% trans %}Vielen Dank für Ihr Verständnis.{% endtrans %}",
        "id": 999999999
    },
    "profiler": []
}