{
  "$schema": "https://192.168.58.2/terminvereinbarung/api/2/",
  "meta": {
    "$schema": "https://schema.berlin.de/queuemanagement/metaresult.json",
    "error": false,
    "generated": "2024-11-19T12:11:17+01:00",
    "server": "Zmsapi-ENV (2.27.02)"
  },
  "data": [
    {
      "$schema": "https://schema.berlin.de/queuemanagement/process.json",
      "amendment": "",
      "appointments": [
        {
          "date": 1459490400,
          "scope": {
            "$ref": "scope/141/"
          },
          "availability": {
            "$ref": "availability/68997/"
          },
          "slotCount": "1"
        }
      ],
      "apiclient": {
        "shortname": "default",
        "permission": {
          "remotecall": "0"
        },
        "apiClientID": "1",
        "clientKey": "default",
        "accesslevel": "public",
        "lastChange": "2024-11-19 09:31:41",
        "secondsToInvalidation": "172800"
      },
      "authKey": "12a2",
      "clients": [
        {
          "familyName": "H52452625",
          "email": "zms@service.berlinonline.de",
          "emailSendCount": "1",
          "notificationsSendCount": "0",
          "surveyAccepted": "0",
          "telephone": ""
        }
      ],
      "createIP": "127.0.0.1",
      "createTimestamp": "1452163726",
      "id": "82252",
      "processArchiveId": "525905ea7f8c416d8e17b33fecd12a54",
      "archiveId": 0,
      "queue": {
        "$schema": "https://schema.berlin.de/queuemanagement/queue.json",
        "arrivalTime": 1459490400,
        "callCount": "0",
        "callTime": 0,
        "number": "82252",
        "waitingTimeEstimate": 15,
        "waitingTimeOptimistic": 0,
        "waitingTime": 251,
        "status": "confirmed",
        "lastCallTime": 0,
        "destination": null,
        "destinationHint": null,
        "withAppointment": true
      },
      "reminderTimestamp": "0",
      "requests": [
        {
          "id": "120703",
          "link": "https://service.berlin.de/dienstleistung/120703/",
          "name": "Personalausweis beantragen",
          "group": "Sonstiges",
          "source": "dldb"
        }
      ],
      "scope": {
        "id": "141",
        "source": "dldb",
        "contact": {
          "name": "Bürgeramt Heerstraße",
          "street": "Heerstr. 12, 14052 Berlin",
          "email": "",
          "country": "Germany"
        },
        "provider": {
          "$ref": "provider/122217/"
        },
        "hint": "Nr. wird zum Termin aufgerufen",
        "lastChange": "2019-08-23 15:22:22",
        "preferences": {
          "appointment": {
            "deallocationDuration": "10",
            "endInDaysDefault": "60",
            "multipleSlotsEnabled": "0",
            "reservationDuration": "20",
            "startInDaysDefault": "0",
            "notificationConfirmationEnabled": "1",
            "notificationHeadsUpEnabled": "1"
          },
          "client": {
            "alternateAppointmentUrl": "",
            "amendmentActivated": "0",
            "amendmentLabel": "",
            "emailFrom": "test@example.com",
            "emailRequired": "0",
            "telephoneActivated": "0",
            "telephoneRequired": "0"
          },
          "notifications": {
            "confirmationContent": "",
            "headsUpContent": "Ihre Wartezeit beträgt noch ca. 30 Min., bitte informieren Sie sich über die Aufrufanzeige im Bürgeramt, in welchem Raum Sie erwartet werden. Wartenr:",
            "headsUpTime": "30"
          },
          "pickup": {
            "alternateName": "Ausgabe",
            "isDefault": "0"
          },
          "queue": {
            "callCountMax": "0",
            "callDisplayText": "Herzlich Willkommen \r\nin Charlottenburg-Wilmersdorf\r\n=====================\r\nTIP: Termin statt Wartezeit!\r\n=====================\r\nNutzen Sie die Online Terminvergabe unter:\r\nhttp://example.com",
            "firstNumber": "1",
            "lastNumber": "499",
            "maxNumberContingent": "0",
            "processingTimeAverage": "15",
            "publishWaitingTimeEnabled": "1",
            "statisticsEnabled": "1"
          },
          "survey": {
            "emailContent": "Text E-Mail-Kundenbefragung",
            "enabled": "0",
            "label": ""
          },
          "ticketprinter": {
            "buttonName": "Bürgeramt",
            "confirmationEnabled": "0",
            "deactivatedText": "",
            "notificationsAmendmentEnabled": "0",
            "notificationsEnabled": "1",
            "notificationsDelay": "0"
          },
          "workstation": {
            "emergencyEnabled": "1",
            "emergencyRefreshInterval": "5"
          }
        },
        "shortName": "",
        "status": {
          "emergency": {
            "acceptedByWorkstation": "-1",
            "activated": "0",
            "calledByWorkstation": "-1"
          },
          "queue": {
            "ghostWorkstationCount": "-1",
            "givenNumberCount": "46",
            "lastGivenNumber": "47",
            "lastGivenNumberTimestamp": "2016-03-24"
          },
          "ticketprinter": {
            "deactivated": "0"
          }
        }
      },
      "status": "confirmed",
      "lastChange": 1732008357
    }
  ]
}