{
    "$schema": "https://localhost/terminvereinbarung/api/2/",
    "meta": {
        "$schema": "https://schema.berlin.de/queuemanagement/metaresult.json",
        "error": false,
        "generated": "2017-06-28T09:45:39+02:00",
        "server": "Zmsapi-ENV"
    },
    "data": {
        "$schema": "https://schema.berlin.de/queuemanagement/process.json",
        "amendment": "",
        "appointments": [
            {
                "date": 1459490400,
                "scope": {
                    "id": "141"
                },
                "availability": {
                    "id": "68997",
                    "weekday": {
                        "sunday": "0",
                        "monday": "0",
                        "tuesday": "0",
                        "wednesday": "0",
                        "thursday": "0",
                        "friday": "32",
                        "saturday": "0"
                    },
                    "repeat": {
                        "afterWeeks": "1",
                        "weekOfMonth": "0"
                    },
                    "bookable": {
                        "startInDays": "0",
                        "endInDays": "60"
                    },
                    "workstationCount": {
                        "public": "3",
                        "callcenter": "3",
                        "intern": "3"
                    },
                    "multipleSlotsAllowed": "0",
                    "slotTimeInMinutes": "10",
                    "startDate": 1454108400,
                    "endDate": 1463868000,
                    "startTime": "08:00:00",
                    "endTime": "13:50:00",
                    "type": "appointment",
                    "scope": {
                        "$ref": "/scope/141/",
                        "id": "141"
                    },
                    "description": ""
                },
                "slotCount": "3"
            }
        ],
        "authKey": "12a2",
        "clients": [
            {
                "familyName": "H52452625",
                "email": "test@example.com",
                "emailSendCount": "0",
                "notificationsSendCount": "0",
                "surveyAccepted": "0",
                "telephone": "01501234567"
            }
        ],
        "createIP": "127.0.0.1",
        "createTimestamp": "1452163726",
        "id": "82252",
        "processArchiveId": "b83ae8059b0644db905d3cbf420a68e2",
        "archiveId": 0,
        "queue": {
            "$schema": "https://schema.berlin.de/queuemanagement/queue.json",
            "arrivalTime": 1459490400,
            "callCount": "0",
            "callTime": 1459500900,
            "number": "82252",
            "waitingTime": null,
            "status": "confirmed",
            "lastCallTime": 0,
            "destination": null,
            "destinationHint": null,
            "withAppointment": "1"
        },
        "reminderTimestamp": "0",
        "requests": [
            {
                "id": "120703",
                "link": "https://service.berlin.de/dienstleistung/120703/",
                "name": "Personalausweis beantragen",
                "group": "Meldewesen und Ordnung",
                "source": "dldb"
            }
        ],
        "scope": {
            "id": "141",
            "provider": {
                "$ref": "/provider/122217/",
                "id": "122217"
            },
            "hint": "Nr. wird zum Termin aufgerufen",
            "contact": {
                "name": "Bürgeramt Heerstraße",
                "street": "Heerstr. 12, 14052 Berlin",
                "email": "",
                "country": "Germany"
            },
            "preferences": {
                "appointment": {
                    "deallocationDuration": "10",
                    "endInDaysDefault": "60",
                    "multipleSlotsEnabled": "0",
                    "reservationDuration": "20",
                    "startInDaysDefault": "0",
                    "notificationConfirmationEnabled": "1",
                    "notificationHeadsUpEnabled": "1"
                },
                "client": {
                    "alternateAppointmentUrl": "",
                    "amendmentActivated": "0",
                    "amendmentLabel": "",
                    "emailRequired": "0",
                    "telephoneActivated": "0",
                    "telephoneRequired": "0",
                    "emailFrom": "test@example.com"
                },
                "notifications": {
                    "confirmationContent": "",
                    "headsUpContent": "Ihre Wartezeit beträgt noch ca. 30 Min., bitte informieren Sie sich über die Aufrufanzeige im Bürgeramt, in welchem Raum Sie erwartet werden. Wartenr:",
                    "headsUpTime": "30"
                },
                "pickup": {
                    "alternateName": "Ausgabe",
                    "isDefault": "0"
                },
                "queue": {
                    "callCountMax": "0",
                    "callDisplayText": "Herzlich Willkommen \r\nin Charlottenburg-Wilmersdorf\r\n=====================\r\nTIP: Termin statt Wartezeit!\r\n=====================\r\nNutzen Sie die Online Terminvergabe unter:\r\nhttp://www.berlin.de/ba-charlottenburg-wilmersdorf/org/buergerdienste/buergeraemter.html",
                    "firstNumber": "1",
                    "lastNumber": "499",
                    "maxNumberContingent": "0",
                    "processingTimeAverage": "15",
                    "publishWaitingTimeEnabled": "1",
                    "statisticsEnabled": "1"
                },
                "survey": {
                    "emailContent": "",
                    "enabled": "0",
                    "label": ""
                },
                "ticketprinter": {
                    "buttonName": "Bürgeramt",
                    "confirmationEnabled": "0",
                    "deactivatedText": "",
                    "notificationsAmendmentEnabled": "0",
                    "notificationsEnabled": "1",
                    "notificationsDelay": "0"
                },
                "workstation": {
                    "emergencyEnabled": "1",
                    "emergencyRefreshInterval": "5"
                }
            },
            "shortName": "",
            "status": {
                "emergency": {
                    "acceptedByWorkstation": "-1",
                    "activated": "0",
                    "calledByWorkstation": "-1"
                },
                "queue": {
                    "ghostWorkstationCount": "-1",
                    "givenNumberCount": "46",
                    "lastGivenNumber": "47",
                    "lastGivenNumberTimestamp": 1458774000
                },
                "ticketprinter": {
                    "deactivated": "0"
                }
            }
        },
        "status": "confirmed"
    },
    "profiler": []
}
