{
    "$schema": "https://192.168.59.105/api/2/",
    "meta": {
        "$schema": "https://schema.berlin.de/queuemanagement/metaresult.json",
        "error": false,
        "generated": "2023-05-31T14:37:15+02:00",
        "server": "Zmsapi-ENV (version.unknown)"
    },
    "data": {
        "$schema": "https://schema.berlin.de/queuemanagement/accessstats.json",
        "id": 34764734357,
        "role": "user",
        "lastActive": 1685534773,
        "location": "zmsadmin"
    }
}
